{
	"name": "KeePass Tusk - Password Access and Autofill",
	"short_name": "KeePass Tusk",
	"version": "2018.9.23",
	"manifest_version": 2,
	"minimum_chrome_version": "48",
	"description": "Readonly KeePass password database integration for Firefox",
	"icons": {
		"16": "/assets/icons/exported/16x16.png",
		"48": "/assets/icons/exported/48x48.png"
	},
	"background": {
		"scripts": [
			"dll/dll.library.js",
			"build/background.build.js"
		]
	},
	"browser_action": {
		"default_icon": "assets/icons/exported/38x38.png",
		"default_popup": "popup.html",
    "default_title": "KeePass Tusk"
	},
	"options_ui": {
		"page": "options.html",
		"chrome_style": false,
		"open_in_tab": true
	},
	"applications": {
	  "gecko": {
	    "id": "brandon@subdavis.com",
	    "strict_min_version": "57.0"
	  }
	},
	"commands": {
		"_execute_browser_action": {
			"suggested_key": {
				"windows": "Ctrl+Shift+Space",
				"mac": "Command+Shift+Space",
				"chromeos": "Ctrl+Shift+Space",
				"linux": "Ctrl+Shift+Space",
				"default": "Ctrl+Shift+Space"
			}
		}
	},
	"static_data": {
		"dropbox" : {
			"client_id": "lau0eigo4cfthqz"
		},
		"onedrive" : {
			"client_id" : "08b651fe-3b64-4a5e-aeb7-66d7220ec707"
		},
		"gdrive": {
			"client_id": "876467817034-rlas0hnb5jc9dt1qmp11l6g4724ktoqn.apps.googleusercontent.com"
		},
		"pcloud": {
			"client_id": "1NklWhTApYR"
		}
	},
	"permissions": [
		"activeTab",
		"storage",
		"clipboardWrite",
		"identity",
		"alarms",
		"notifications",
		"https://*/*",
		"http://*/*",
		"file:///*/*"
	],
	"optional_permissions": [
		"https://*/*",
		"http://*/*"
	]
}
